…
The coefficient for percent white (\(\beta_2\)) is -0.448, which means that controlling for age, a 1% increase in the proportion of whites in a county is associated with a drop in democratic vote share of 0.448, on average. This would be like moving from 40% to 39.552%.

To explain model fit, we need to look at the adjusted \(R^2\) because we’re using more than one explanatory variable. This model explains 34.9% of the variation in democratic vote share. It’s getting better!

Percent democratic explained by lots of things

Now let’s throw in a ton of explanatory variables to see what other factors might explain democratic vote share:

model_lots_of_stuff <- lm(percent_dem ~ median_age + percent_white + 
                            per_capita_income + median_rent + state,
                          data = results_2016)

get_regression_table(model_lots_of_stuff)

## # A tibble: 54 x 7
##    term              estimate std_error statistic p_value lower_ci upper_ci
##    <chr>                <dbl>     <dbl>     <dbl>   <dbl>    <dbl>    <dbl>
##  1 intercept           58.5       1.66      35.3    0       55.2     61.8  
##  2 median_age           0.166     0.037      4.52   0        0.094    0.238
##  3 percent_white       -0.682     0.011    -61.9    0       -0.704   -0.661
##  4 per_capita_income    0         0          5.46   0        0        0    
##  5 median_rent          0.02      0.002     12.3    0        0.017    0.023
##  6 stateArizona        -7.96      2.18      -3.65   0      -12.2     -3.69 
##  7 stateArkansas        4.08      1.28       3.19   0.001    1.57     6.58 
##  8 stateCalifornia     -2.45      1.50      -1.64   0.102   -5.38     0.485
##  9 stateColorado        1.81      1.36       1.34   0.182   -0.848    4.47 
## 10 stateConnecticut    11.8       2.87       4.10   0        6.12    17.4  
## # … with 44 more rows
…
